<?xml version="1.0" encoding="utf-8"?>
<!-- Generator: Adobe Illustrator 23.0.3, SVG Export Plug-In . SVG Version: 6.00 Build 0)  -->
<svg version="1.1" id="Icons" xmlns="http://www.w3.org/2000/svg" xmlns:xlink="http://www.w3.org/1999/xlink" x="0px" y="0px"
	 viewBox="0 0 32 32" style="enable-background:new 0 0 32 32;" xml:space="preserve">
<style type="text/css">
	.st0{fill:none;stroke:#000000;stroke-width:2;stroke-linecap:round;stroke-linejoin:round;stroke-miterlimit:10;}
</style>
<circle class="st0" cx="16" cy="23.5" r="2.5"/>
<g>
	<path class="st0" d="M21.6,18.5C20.2,17,18.2,16,16,16s-4.2,1-5.6,2.5"/>
</g>
<g>
	<path class="st0" d="M25.1,14.9C22.8,12.5,19.6,11,16,11s-6.8,1.5-9.1,3.9"/>
</g>
<g>
	<path class="st0" d="M28.6,11.4C25.4,8.1,21,6,16,6S6.6,8.1,3.4,11.4"/>
</g>
</svg>
