<?xml version="1.0" encoding="UTF-8" standalone="no"?>
<!-- Created with Inkscape (http://www.inkscape.org/) -->

<svg
   width="512"
   height="512"
   viewBox="0 0 135.46666 135.46667"
   version="1.1"
   id="svg1"
   xml:space="preserve"
   xmlns="http://www.w3.org/2000/svg"
   xmlns:svg="http://www.w3.org/2000/svg"><defs
     id="defs1" /><g
     id="layer1"><g
       id="g1"
       transform="matrix(4.8739916,0,0,4.7508766,-9.7479832,-9.5017532)"><circle
         class="st0"
         cx="12"
         cy="11"
         r="2"
         id="circle1" /><circle
         class="st0"
         cx="21"
         cy="18"
         r="3"
         id="circle2" /><path
         class="st0"
         d="M 10.4,21 C 9.8,21.6 8.9,21.6 8.3,21 7.7,20.4 7.7,19.5 8.3,18.9"
         id="path2" /><path
         class="st0"
         d="M 29,16 C 29,8.8 23.2,3 16,3 13.3,3 10.9,3.8 8.8,5.2 8.6,5.1 8.3,5 8,5 6.9,5 6,5.9 6,7 6,7.2 6,7.4 6.1,7.6 4.2,9.9 3,12.8 3,16 c 0,3.2 1.1,6.1 3,8.3 0,0.1 0,0.1 0,0.2 0,1.4 1.1,2.5 2.5,2.5 0.2,0 0.3,0 0.5,-0.1 2,1.3 4.4,2.1 7,2.1 3.7,0 7.1,-1.6 9.4,-4.1 0.2,0 0.4,0.1 0.6,0.1 1.7,0 3,-1.3 3,-3 0,-0.7 -0.3,-1.4 -0.7,-1.9 C 28.8,18.8 29,17.4 29,16 Z"
         id="path3" /></g></g><style
     type="text/css"
     id="style1">
	.st0{fill:none;stroke:#000000;stroke-width:2;stroke-linecap:round;stroke-linejoin:round;stroke-miterlimit:10;}
</style></svg>
